9d8cc73,2024-03-24,"New page listing every git commit every happened on this web site"
6925b22,2024-03-24,"updated templates"
dba811b,2024-03-24,"New post"
51a4d26,2024-03-14,"Added header image"
8803435,2024-03-14,"Updated post with new information"
d9d04ed,2024-03-13,"Updated missing.css to latest version"
a1b5843,2024-03-13,"New post"
4aea96c,2024-03-11,"Update about.md"
f5cb9b6,2024-03-10,"Corrected wrong file path for dwx fil"
3b32ac3,2024-03-10,"Updated social QR images"
4416455,2024-03-09,"Updated list of systems fonts and once again tried to fix the arrow issue"
3751ab0,2024-03-09,"New books layout"
11ccd89,2024-03-09,"updated type to be blog"
8f6585e,2024-03-09,"bug in published_time"
3e19c7e,2024-03-09,"Added type and maybe publish date"
0ef3cad,2024-03-09,"Do the arrow work now?"
cdb44d9,2024-03-09,"Do the arrow work now?"
3914650,2024-03-09,"Longer description"
61e5598,2024-03-09,"maybe support for datePublished"
58c7126,2024-03-08,"Updated CSS for dl,dt,dd"
31eba9f,2024-03-08,"hr?"
e896a9c,2024-03-08,"Small typo errors"
16e8528,2024-03-08,"New blog post"
a671d9c,2024-03-08,"Update style.scss"
bf1ac86,2024-03-08,"Update list.html"
82a1024,2024-03-08,"Update list.html"
a087ced,2024-03-07,"Path mixup"
02d502e,2024-03-07,"Moved assets and added signal contact"
67fe898,2024-03-07,"Fxied icon for external links"
f4afe2b,2024-03-07,"Added author to page"
11d34d6,2024-03-07,"Added notbyia badge and a disclaimer"
8f9bfd2,2024-02-29,"Updated robots.txt to include a whitelist and blacklist everything else"
e5658e6,2024-02-28,"Added rel=me to traces of me"
831b062,2024-02-28,"Add arrow icon to indicate the link is external"
90b431b,2024-02-21,"gzip and brotli compress svg"
d7a18d9,2024-02-21,"Updated paths to images"
0c58ec4,2024-02-21,"Template updates"
97af6d1,2024-02-21,"Template updates"
492f4f3,2024-02-21,"Template updates"
5a82236,2024-02-21,"Template updates"
8be8a80,2024-02-21,"Template updates"
2357f2d,2024-02-21,"Switched to local assests and converted all images to webp"
834a3c7,2024-02-21,"Added all static assests to the repos"
6d7717c,2024-02-10,"Update pipeline support for gzip and brotli"
557d0af,2024-01-11,"Removed Cloudflare analytics - not needed and not interested"
561dbfb,2024-01-02,"New post"
357e9f1,2024-01-02,"New post"
88ab7ed,2024-01-02,"New post"
856b874,2024-01-02,"New post"
83aef15,2023-11-20,"New post"
91fd9b9,2023-10-31,"Update index.md"
66866b7,2023-10-31,"Delete .gitkeep"
c75bd53,2023-10-31,"Add new file"
86efe4c,2023-10-31,"Upload New File"
bd372f8,2023-10-31,"Add new directory"
8e04032,2023-10-31,"Update index.md"
80df01d,2023-10-30,"Upload New File"
618294d,2023-10-30,"Delete on-micromangement.webp"
a80ebaf,2023-10-30,"Delete .gitkeep"
d4b2ab4,2023-10-30,"Upload New File"
a5cac88,2023-10-30,"Add new file"
57d185a,2023-10-30,"Add new directory"
524cab4,2023-09-29,"Update robots.txt - reject Bard and Vertex"
ecfc0a8,2023-08-23,"Update index.md"
5bf32c6,2023-08-22,"MOved post"
d532921,2023-08-21,"Update index.html"
d0c34a9,2023-08-21,"Update index.html"
b5915f8,2023-08-21,"Update config.toml"
5982d5e,2023-08-21,"Update index.html"
c4819e3,2023-08-21,"Update index.html"
720c5a1,2023-08-21,"Update index.md"
382afd3,2023-08-21,"Update index.md"
e893526,2023-08-21,"Update index.md"
0341676,2023-08-21,"New post"
311335b,2023-08-14,"Update style.scss"
8c30ecc,2023-08-13,"Styling update"
1b281f0,2023-08-13,"New version with more information added to each book"
a2c8967,2023-08-13,"Stupid typo"
018442e,2023-08-13,"New books page"
63ce596,2023-08-06,"Twitter card support"
76638ff,2023-08-06,"get image path fails on a page"
93b3245,2023-08-06,"Better open graph support"
bf8b231,2023-08-06,"Added height and width for each internal header image"
344681b,2023-08-06,"Added the missing.css styles instead of my own"
83d9c6f,2023-08-06,"Switched to a highly simple layout"
fd23d97,2023-07-14,"Update index.html"
fc3a547,2023-07-14,"Update page.html"
4b8eb1f,2023-07-14,"Update about.md"
5d844bd,2023-07-14,"Fixed m,erge conflict"
7f49ad4,2023-07-14,"Mixed up image assets"
722f4b0,2023-07-14,"Update about.md"
cf01df1,2023-07-14,"Updated about.md"
52db6a0,2023-07-12,"Updated styles"
dac4eb1,2023-07-12,"Allow zooming"
6d50231,2023-07-12,"Adding missing title"
969bc4f,2023-07-12,"Categories as tag cloud"
2ad83eb,2023-07-12,"WIP Tag Cloud"
9b7d185,2023-07-12,"WIP Tag cloud"
15d23e8,2023-07-12,"Filename fix"
de6eee7,2023-07-12,"Update 2019-03-06-Estimater.md"
4a7b00b,2023-07-12,"Updated tags"
20c8162,2023-07-12,"fixed name classing"
0ed1ad5,2023-07-12,"New old post"
716c0fc,2023-07-12,"Updated image style"
32d8008,2023-07-12,"Small adjustments"
f822c0a,2023-07-12,"New old post"
fe4284f,2023-07-12,"New old post"
45d61b1,2023-07-12,"New old post"
178a0ad,2023-05-24,"Uptimised my icons"
bb231da,2023-05-22,"Update about.md"
be02bf1,2023-03-26,"Optimized image"
6303f5c,2023-03-24,"Merge branch 'master' of gitlab.com:memborg/memborg"
6eaa767,2023-03-24,"Smaller image"
f82f581,2023-03-23,"Fixed typos and added more content"
8e1cace,2023-03-23,"New blog post and template update"
2306261,2023-03-02,"Update .gitlab-ci.yml file"
82ebe8a,2023-02-26,"Downgraded zola version"
aec4d80,2023-02-25,"Update _index1.md"
1f8846c,2023-02-25,"Update _index.md"
d5122d2,2023-02-25,"Update .gitlab-ci.yml file"
e05382e,2023-02-25,"New post"
74e0e6c,2023-02-25,"Add new directory"
e5f7d55,2023-01-03,"Updates to latest zola"
607a291,2022-08-11,"Updated CSS to support longform and fixed styling in dark mode"
3e19395,2022-07-26,"Update content/2022-07-26-update-new-insights.md"
07356ec,2022-07-26,"New post"
3f8ec7d,2022-07-13,"lftp is no longer a dependency"
e7ab279,2022-07-13,"Delete publish.bat - no longer needed"
3038fb3,2022-07-13,"Added new post"
dc03d2f,2022-07-10,"Clean ups - dropped online cv/resume"
817f1f8,2022-06-04,"Updated resume"
63c9897,2022-04-24,"New post"
583d2b4,2022-04-23,"Add new file"
52099fb,2022-04-23,"Add new directory"
574cce7,2022-04-20,"publicing to gitlab pages"
a7de53f,2022-02-02,"Update 2022-02-02-mere-bevagelse.md"
d144213,2022-02-02,"New post"
a221be2,2021-12-19,"Adding dylexia"
4c67775,2021-12-19,"Updated resumé"
637968a,2021-12-12,"Updated Ci to latest Zola"
ca76e14,2021-12-12,"Updated resume"
24e7c6b,2021-12-12,"Updated resume and print styling"
c983201,2021-12-08,"Updated english resume"
d3d6a95,2021-09-25,"Update 2021-09-25-mars-sucks.md"
19b4f55,2021-09-25,"New post"
72fdb1a,2021-09-24,"Added social contacts"
6a7e476,2021-09-05,"Removed some build warnings and one link error"
7d77550,2021-08-25,"Engish resume added"
24a7c62,2021-07-22,"Fixed some broken links and GPC indicator"
ae8e413,2021-07-03,"Added overrides for reduce-motion"
0802be5,2021-05-30,"Small changes to HEAD"
db78eba,2021-04-30,"Add new file"
b97fde1,2021-04-25,"Renamed post"
4d67077,2021-04-25,"New post"
6adeeba,2021-02-19,"Update 2021-02-19-about-taking-risks.md"
0cf577a,2021-02-19,"New post"
b5992ac,2021-02-14,"Small video  player changes"
d8d6370,2021-02-14,"Fixed missing assets for favicons"
77f912a,2021-02-14,"Added new post and added new favicons"
7a2fb06,2021-01-31,"Update 2021-01-31-updated-website.md"
9862ee7,2021-01-31,"Update .gitlab-ci.yml"
a61f724,2021-01-31,"Update .gitlab-ci.yml"
4d1b568,2021-01-31,"Update config.toml"
c99dd57,2021-01-31,"New post"
19066c6,2021-01-31,"Update .gitlab-ci.yml"
062c32f,2021-01-30,"Added dark mode and exclude some domains from zola check"
f14abb9,2021-01-24,"Update 2020-06-16-shorthand-date-period-parser.md"
8a6d595,2021-01-24,"Update .gitlab-ci.yml"
1532e99,2021-01-24,"Add ed alot of options to LFTP"
7898904,2021-01-24,"Update .gitlab-ci.yml"
26ca249,2021-01-24,"Update .gitlab-ci.yml"
4e87a9d,2021-01-24,"CI FTP test"
acf2276,2021-01-24,"Small fix"
2dae00b,2021-01-24,"Update config.toml"
273f5ee,2021-01-24,"Update .gitlab-ci.yml"
73d4bab,2021-01-24,"Update .gitlab-ci.yml"
568e866,2021-01-24,"Add .gitlab-ci.yml"
320fcee,2020-07-23,"Added date to toml, where missing"
fcfa900,2020-07-23,"fixes spelling mistakes"
ba63e03,2020-07-06,"Allow Google bot again"
06161be,2020-06-18,"New blog post"
579053e,2020-06-16,"New blog post"
fafbe80,2020-06-06,"Added new blog post"
fb55c9b,2020-05-29,"updated dead links"
3bd4a8d,2020-04-11," Changes to be committed: 	new file:   content/nonposts/membot.md 	modified:   sass/style.scss"
9d121e6,2020-03-25,"Nicer tags and category section"
51b8534,2020-03-14,"Got pagination under control"
654e10d,2020-03-14,"Updated dead link"
d7615d0,2020-02-19,"Updated prev and next styles. Pagination still doesn't work"
3826115,2020-02-01,"Fixed some images and added canonical link metatag"
130bcff,2020-01-25,"optimzed some stuff and added twitter card suport"
70f3d14,2020-01-22,"New blog post about metal"
477b621,2020-01-18,"Moved all images to my own cdn and added more microbrowser support"
d03a0ab,2020-01-12,"Added favicon support and microbrowser support"
0c4c3c0,2020-01-04,"Updated CV layout"
633425f,2020-01-04,"Small text edit and changed publish script"
c7fc0c4,2019-10-11,"Merge branch 'master' of gitlab.com:memborg/superrune"
0c894a2,2019-10-11,"Fixed a broken link and added more info to index.html"
448f302,2019-08-08,"Update robots.txt"
bcf3712,2019-08-07,"Moved to https://getzola.org"
b2f9579,2019-08-07,"No more jekyllrb"
16f3667,2019-07-15,"New post"
27dc458,2019-07-15,"New post"
14c966b,2019-07-15,"Added robots.txt"
655d2fb,2019-04-07,"Merge branch 'master' of gitlab.com:memborg/superrune"
a2ea67a,2019-04-07,"removed ssl.html"
6653724,2019-03-07,"Small corrections"
7bc09e3,2019-03-06,"New post"
ea6448f,2018-11-17,"Update .gitlab-ci.yml"
c265301,2018-11-17,"Update .gitlab-ci.yml"
8d2091c,2018-11-17,"Update .gitlab-ci.yml"
6487745,2018-11-17,"Update .gitlab-ci.yml"
232fb0c,2018-11-17,"Update .gitlab-ci.yml"
717d762,2018-11-17,"Update .gitlab-ci.yml"
1444f57,2018-11-17,"Update .gitlab-ci.yml"
84b5aaf,2018-10-17,"Updated footer"
6f4a39c,2018-10-06,"Update .gitlab-ci.yml"
b3b6366,2018-10-06,"No parallel upload"
0bb257b,2018-10-06,"Update .gitlab-ci.yml"
62c76d2,2018-10-06,"Update .gitlab-ci.yml"
81babc5,2018-10-06,"deploy to ftp"
a3bf1c9,2018-10-03,"Fix unintended new line"
a7e46d4,2018-10-03,"New post about Rust and WebAssembly"
9bb99fc,2018-08-11,"Revised the estimates in the text"
6c2c0d7,2018-08-02,"Added jekyll-target-blank plugin to handle external links"
93ff84e,2018-07-30,"Fixed mixed content warning"
f9cfba8,2018-07-30,"Updated netlify ruby-version"
d37de7b,2018-07-30,"New post about my doings in my summer vacation"
91fc816,2018-03-07,"Added info about interns"
6cafbf2,2018-03-06,"adjusted skills and jobs based on current job describtion"
1c2cc0f,2018-01-03,"Merge branch 'master' of gitlab.com:memborg/superrune"
e87f591,2018-01-03,"Bumped netlify to ruby version 2.4.2"
1ab2343,2018-01-03,"Bumped ruby version 2.4.2"
466ffc3,2018-01-03,"New post"
3456fea,2018-01-01,"updated gemfile"
54aaf22,2017-10-28,"Update 2017-10-28-flyttet-til-netlify.md"
daad513,2017-10-28,"Update 2017-10-28-flyttet-til-netlify.md"
c93e1e6,2017-10-28,"New post"
1bda97e,2017-10-22,"Changes to be committed: 	modified:   _posts/2017-10-22-Skrevet-noget-i-rust.md"
6c81597,2017-10-22,"Changes to be committed: 	modified:   _config.yml"
87df29c,2017-10-22,"Changes to be committed: 	modified:   Gemfile 	new file:   _posts/2017-10-22-Skrevet-noget-i-rust.md"
8697a5f,2017-10-22,"Updated about me"
ba7418a,2017-10-22,"Updated about me"
fa8e8a6,2017-10-22,"Merge branch 'master' of gitlab.com:memborg/superrune"
c4051f8,2017-10-22,"updated"
89542fb,2017-08-15,"Update ssl.html"
21b6336,2017-05-28,"cert renew"
53aab97,2017-02-08,"New options"
adf0b1d,2017-02-08,"New post"
49e012f,2017-02-05,"Changed job title"
a28806e,2017-02-05,"Added new job description"
6b53991,2017-01-07,"Added SSL"
92877f2,2017-01-07,"Switched to SSL"
44570f4,2016-10-30,"Updated link"
db74bdd,2016-10-28,"Added reading time to posts"
2b64ac2,2016-09-30,"small adjustments"
150af8b,2016-09-28,"Disabled cross posting"
4979147,2016-09-27,"Croospost to Medium"
deeddd5,2016-09-20,"New post"
e0b8e81,2016-09-10,"Added support for bullets on resume"
d84db28,2016-09-07,"Merge branch 'master' of gitlab.com:memborg/superrune"
c6b73a4,2016-09-07,"New post"
7da696d,2016-09-03,"Updated README to be accurate"
a28fa97,2016-09-03,"Added new job description"
0d426c3,2016-07-28,"Fixed spelling errors"
1a2f4aa,2016-07-26,"New post"
217b960,2016-07-24,"Small typoes and added values to resume"
a0eb4d0,2016-06-25,"New skills added"
138aeb8,2016-06-25,"Fixed typo"
f82b205,2016-06-11,"SSL shold be a HTML file instead"
b8743d3,2016-06-11,"SSL"
f11816a,2016-06-09,"SSL"
40ceee8,2016-06-09,"letsencrypt"
1225bb2,2016-06-09,"letsencrypt"
6c7e16b,2016-06-09,"letsencrypt"
c04aace,2016-05-04,"More dependicies loaded"
3450597,2016-05-04,"Ready for Gitlab"
98d36cb,2016-05-04,"step 1 in moving site"
52308cf,2016-05-04,"CI settings"
